%YAML 1.1
%TAG !u! tag:unity3d.com,2011:
--- !u!114 &11400000
MonoBehaviour:
  m_ObjectHideFlags: 0
  m_CorrespondingSourceObject: {fileID: 0}
  m_PrefabInstance: {fileID: 0}
  m_PrefabAsset: {fileID: 0}
  m_GameObject: {fileID: 0}
  m_Enabled: 1
  m_EditorHideFlags: 0
  m_Script: {fileID: 11500000, guid: 13b75c95f34a00d4e8c04f76b73312e6, type: 3}
  m_Name: slate waterfall bottom
  m_EditorClassIdentifier: 
  m_AnimatedSprites:
  - {fileID: -1937906750, guid: 98e5f02ae6359467482100c0a18eb7d2, type: 3}
  - {fileID: -77805248, guid: 98e5f02ae6359467482100c0a18eb7d2, type: 3}
  - {fileID: -1723551015, guid: 98e5f02ae6359467482100c0a18eb7d2, type: 3}
  - {fileID: 1657720772, guid: 98e5f02ae6359467482100c0a18eb7d2, type: 3}
  m_MinSpeed: 5
  m_MaxSpeed: 5
  m_AnimationStartTime: 0
  m_AnimationStartFrame: 0
  m_TileColliderType: 0
  m_TileAnimationFlags: 0
